{
  "common/getversion": {
    "code": 200,
    "message": "测试一下",
    "data": {
      "total": 100,
      "per_page": 10,
      "current_page": 1,
      "last_page": 10,
      "data": [{
        "name": "5.2.0",
        "title": "http://test.com/test.apk",
        "score": "1.  全新UI体验\r\n2.  优化性能，修复已知问题",
        "author": "false",
        "subreddit": "test",
        "num_comments": 1,
        "created_utc": 0,
        "thumbnail": "",
        "url": ""
      },
        {
          "name": "5.2.0",
          "title": "http://test.com/test.apk",
          "score": "1.  全新UI体验\r\n2.  优化性能，修复已知问题",
          "author": "false",
          "subreddit": "test",
          "num_comments": 1,
          "created_utc": 0,
          "thumbnail": "",
          "url": ""
        },
        {
          "name": "5.2.0",
          "title": "http://test.com/test.apk",
          "score": "1.  全新UI体验\r\n2.  优化性能，修复已知问题",
          "author": "false",
          "subreddit": "test",
          "num_comments": 1,
          "created_utc": 0,
          "thumbnail": "",
          "url": ""
        },
        {
          "name": "5.2.0",
          "title": "http://test.com/test.apk",
          "score": "1.  全新UI体验\r\n2.  优化性能，修复已知问题",
          "author": "false",
          "subreddit": "test",
          "num_comments": 1,
          "created_utc": 0,
          "thumbnail": "",
          "url": ""
        },
        {
          "name": "5.2.0",
          "title": "http://test.com/test.apk",
          "score": "1.  全新UI体验\r\n2.  优化性能，修复已知问题",
          "author": "false",
          "subreddit": "test",
          "num_comments": 1,
          "created_utc": 0,
          "thumbnail": "",
          "url": ""
        },
        {
          "name": "5.2.0",
          "title": "http://test.com/test.apk",
          "score": "1.  全新UI体验\r\n2.  优化性能，修复已知问题",
          "author": "false",
          "subreddit": "test",
          "num_comments": 1,
          "created_utc": 0,
          "thumbnail": "",
          "url": ""
        },{
          "name": "5.2.0",
          "title": "http://test.com/test.apk",
          "score": "1.  全新UI体验\r\n2.  优化性能，修复已知问题",
          "author": "false",
          "subreddit": "test",
          "num_comments": 1,
          "created_utc": 0,
          "thumbnail": "",
          "url": ""
        },
        {
          "name": "5.2.0",
          "title": "http://test.com/test.apk",
          "score": "1.  全新UI体验\r\n2.  优化性能，修复已知问题",
          "author": "false",
          "subreddit": "test",
          "num_comments": 1,
          "created_utc": 0,
          "thumbnail": "",
          "url": ""
        },
        {
          "name": "5.2.0",
          "title": "http://test.com/test.apk",
          "score": "1.  全新UI体验\r\n2.  优化性能，修复已知问题",
          "author": "false",
          "subreddit": "test",
          "num_comments": 1,
          "created_utc": 0,
          "thumbnail": "",
          "url": ""
        },
        {
          "name": "5.2.0",
          "title": "http://test.com/test.apk",
          "score": "1.  全新UI体验\r\n2.  优化性能，修复已知问题",
          "author": "false",
          "subreddit": "test",
          "num_comments": 1,
          "created_utc": 0,
          "thumbnail": "",
          "url": ""
        },
        {
          "name": "5.2.0",
          "title": "http://test.com/test.apk",
          "score": "1.  全新UI体验\r\n2.  优化性能，修复已知问题",
          "author": "false",
          "subreddit": "test",
          "num_comments": 1,
          "created_utc": 0,
          "thumbnail": "",
          "url": ""
        },
        {
          "name": "5.2.0",
          "title": "http://test.com/test.apk",
          "score": "1.  全新UI体验\r\n2.  优化性能，修复已知问题",
          "author": "false",
          "subreddit": "test",
          "num_comments": 1,
          "created_utc": 0,
          "thumbnail": "",
          "url": ""
        },
        {
          "name": "5.2.0",
          "title": "http://test.com/test.apk",
          "score": "1.  全新UI体验\r\n2.  优化性能，修复已知问题",
          "author": "false",
          "subreddit": "test",
          "num_comments": 1,
          "created_utc": 0,
          "thumbnail": "",
          "url": ""
        },
        {
          "name": "5.2.0",
          "title": "http://test.com/test.apk",
          "score": "1.  全新UI体验\r\n2.  优化性能，修复已知问题",
          "author": "false",
          "subreddit": "test",
          "num_comments": 1,
          "created_utc": 0,
          "thumbnail": "",
          "url": ""
        }

      ]

    }
  }
}











